Project
…
#It seems that the price is a  little bit too low, lets increase it so we can have a more diverse selection of brands

laptop.df2 %>%
  filter(processor_name == "Core i3",
         os == "Windows",
         latest_price_dollars <= 900,
         star_rating >= 3.50) %>%
  arrange(latest_price_dollars)%>%
  group_by(brand)%>%
  slice(1:5)

## # A tibble: 30 x 22
## # Groups:   brand [9]
##    brand model  processor_name processor_gnrtn ram_gb ram_type   ssd   hdd os   
##    <chr> <chr>  <chr>          <chr>           <chr>  <chr>    <int> <int> <chr>
##  1 acer  Trave~ Core i3        11th            8      DDR4       256  1024 Wind~
##  2 ASUS  Vivob~ Core i3        10th            8      DDR4         0  1024 Wind~
##  3 ASUS  VivoB~ Core i3        10th            8      DDR4       256     0 Wind~
##  4 ASUS  Core   Core i3        10th            4      DDR4         0  1024 Wind~
##  5 ASUS  Core   Core i3        11th            4      DDR4       256     0 Wind~
##  6 ASUS  VivoB~ Core i3        10th            4      DDR4         0  1024 Wind~
##  7 DELL  Vostro Core i3        10th            4      DDR4       256     0 Wind~
##  8 DELL  Inspi~ Core i3        11th            8      DDR4         0  1024 Wind~
##  9 DELL  Vostro Core i3        10th            8      DDR4       256     0 Wind~
## 10 DELL  Inspi~ Core i3        10th            4      DDR4       256     0 Wind~
## # ... with 20 more rows, and 13 more variables: os_bit <int>,
## #   graphic_card_gb <int>, weight <chr>, display_size <chr>, warranty <int>,
## #   Touchscreen <chr>, msoffice <chr>, old_price_dollars <dbl>,
## #   latest_price_dollars <dbl>, discount <int>, star_rating <dbl>,
## #   ratings <int>, reviews <int>

#We cant see the Apple products, which are the one with the best rating stars as we saw previously, it is because these brand do not use the Core I3 processors, neither windows.

laptop.df2 %>%
  filter(latest_price_dollars <=900,
         star_rating >= 3.50) %>%
  arrange(latest_price_dollars)%>%
  group_by(brand)%>%
  slice(1:5)

## # A tibble: 62 x 22
## # Groups:   brand [16]
##    brand model  processor_name processor_gnrtn ram_gb ram_type   ssd   hdd os   
##    <chr> <chr>  <chr>          <chr>           <chr>  <chr>    <int> <int> <chr>
##  1 acer  Exten~ Pentium Quad   Missing         "4"    "DDR4"     256     0 Wind~
##  2 acer  Dual   Dual Core      Missing         "4"    "DDR4"     256     0 Wind~
##  3 acer  Aspire Athlon Dual    Missing         "4"    "DDR4"     256     0 Wind~
##  4 acer  Aspire Ryzen 3        Missing         "8"    "DDR4"     512     0 Wind~
##  5 acer  Trave~ Core i3        11th            "8"    "DDR4"     256  1024 Wind~
##  6 ASUS  Chrom~ Celeron Dual   Missing         "4"    "LPDDR4"     0     0 Miss~
##  7 ASUS  Chrom~ Celeron Dual   Missing         "4"    "LPDDR4"     0     0 Miss~
##  8 ASUS  APU    Quad           Missing         ""     ""           0     0 Miss~
##  9 ASUS  Chrom~ Celeron Dual   Missing         "4"    "LPDDR4"     0     0 Miss~
## 10 ASUS  Chrom~ Celeron Dual   Missing         "4"    "LPDDR4"     0     0 Miss~
## # ... with 52 more rows, and 13 more variables: os_bit <int>,
## #   graphic_card_gb <int>, weight <chr>, display_size <chr>, warranty <int>,
## #   Touchscreen <chr>, msoffice <chr>, old_price_dollars <dbl>,
## #   latest_price_dollars <dbl>, discount <int>, star_rating <dbl>,
## #   ratings <int>, reviews <int>

#We still cant see the Apple products ! These brand must definitely be very expensive ! 

laptop.df2 %>%
  filter(star_rating >= 3.50) %>%
  arrange(latest_price_dollars)%>%
  group_by(brand)%>%
  slice(1:5)

## # A tibble: 77 x 22
## # Groups:   brand [20]
##    brand  model processor_name processor_gnrtn ram_gb ram_type   ssd   hdd os   
##    <chr>  <chr> <chr>          <chr>           <chr>  <chr>    <int> <int> <chr>
##  1 acer   Exte~ Pentium Quad   Missing         4      DDR4       256     0 Wind~
##  2 acer   Dual  Dual Core      Missing         4      DDR4       256     0 Wind~
##  3 acer   Aspi~ Athlon Dual    Missing         4      DDR4       256     0 Wind~
##  4 acer   Aspi~ Ryzen 3        Missing         8      DDR4       512     0 Wind~
##  5 acer   Trav~ Core i3        11th            8      DDR4       256  1024 Wind~
##  6 ALIEN~ Core  GeForce GTX    Missing         15.6   Full         0     0 Miss~
##  7 ALIEN~ Core  GeForce RTX    Missing         15.6   Full         0     0 Miss~
##  8 ALIEN~ Core  GeForce RTX    Missing         15.6   Full         0     0 Miss~
##  9 ALIEN~ Core  GeForce RTX    Missing         15.6   Full         0     0 Miss~
## 10 APPLE  2020  M1 Processor   Missing         8      DDR4       256     0 Mac  
## # ... with 67 more rows, and 13 more variables: os_bit <int>,
## #   graphic_card_gb <int>, weight <chr>, display_size <chr>, warranty <int>,
## #   Touchscreen <chr>, msoffice <chr>, old_price_dollars <dbl>,
## #   latest_price_dollars <dbl>, discount <int>, star_rating <dbl>,
## #   ratings <int>, reviews <int>
…
